{
  "page": 1,
  "total_results": 10000,
  "total_pages": 500,
  "results": [
    {
      "popularity": 353.304,
      "vote_count": 2356,
      "video": false,
      "poster_path": "/xBHvZcjRiWyobQ9kxBhO6B2dtRI.jpg",
      "id": 419704,
      "adult": false,
      "backdrop_path": "/5BwqwxMEjeFtdknRV792Svo0K1v.jpg",
      "original_language": "en",
      "original_title": "Ad Astra",
      "genre_ids": [
        12,
        18,
        9648,
        878,
        53
      ],
      "title": "Ad Astra",
      "vote_average": 6,
      "overview": "The near future, a time when both hope and hardships drive humanity to look to the stars and beyond. While a mysterious phenomenon menaces to destroy life on planet Earth, astronaut Roy McBride undertakes a mission across the immensity of space and its many perils to uncover the truth about a lost expedition that decades before boldly faced emptiness and silence in search of the unknown.",
      "release_date": "2019-09-17"
    },
    {
      "popularity": 268.411,
      "vote_count": 233,
      "video": false,
      "poster_path": "/aQvJ5WPzZgYVDrxLX4R6cLJCEaQ.jpg",
      "id": 454626,
      "adult": false,
      "backdrop_path": "/tCUcf3oNWMW8kwAj3WC6CvIN5ah.jpg",
      "original_language": "en",
      "original_title": "Sonic the Hedgehog",
      "genre_ids": [
        28,
        35,
        878,
        10751
      ],
      "title": "Sonic the Hedgehog",
      "vote_average": 7.1,
      "overview": "Based on the global blockbuster videogame franchise from Sega, Sonic the Hedgehog tells the story of the world’s speediest hedgehog as he embraces his new home on Earth. In this live-action adventure comedy, Sonic and his new best friend team up to defend the planet from the evil genius Dr. Robotnik and his plans for world domination.",
      "release_date": "2020-02-12"
    },
    {
      "popularity": 242.99,
      "vote_count": 4106,
      "video": false,
      "poster_path": "/7IiTTgloJzvGI1TAYymCfbfl3vT.jpg",
      "id": 496243,
      "adult": false,
      "backdrop_path": "/TU9NIjwzjoKPwQHoHshkFcQUCG.jpg",
      "original_language": "ko",
      "original_title": "기생충",
      "genre_ids": [
        35,
        18,
        53
      ],
      "title": "Parasite",
      "vote_average": 8.6,
      "overview": "All unemployed, Ki-taek's family takes peculiar interest in the wealthy and glamorous Parks for their livelihood until they get entangled in an unexpected incident.",
      "release_date": "2019-05-30"
    },
    {
      "popularity": 156.718,
      "vote_count": 289,
      "video": false,
      "poster_path": "/yJdeWaVXa2se9agI6B4mQunVYkB.jpg",
      "id": 449924,
      "adult": false,
      "backdrop_path": "/ekP6EVxL81lZ4ivcqPsoZ72rY0h.jpg",
      "original_language": "cn",
      "original_title": "葉問4",
      "genre_ids": [
        28,
        18,
        36
      ],
      "title": "Ip Man 4: The Finale",
      "vote_average": 5.9,
      "overview": "Following the death of his wife, Ip Man travels to San Francisco to ease tensions between the local kung fu masters and his star student, Bruce Lee, while searching for a better future for his son.",
      "release_date": "2019-12-20"
    },
    {
      "popularity": 145.227,
      "vote_count": 2347,
      "video": false,
      "poster_path": "/pjeMs3yqRmFL3giJy4PMXWZTTPa.jpg",
      "id": 330457,
      "adult": false,
      "backdrop_path": "/xJWPZIYOEFIjZpBL7SVBGnzRYXp.jpg",
      "original_language": "en",
      "original_title": "Frozen II",
      "genre_ids": [
        12,
        16,
        10751
      ],
      "title": "Frozen II",
      "vote_average": 7,
      "overview": "Elsa, Anna, Kristoff and Olaf head far into the forest to learn the truth about an ancient mystery of their kingdom.",
      "release_date": "2019-11-20"
    },
    {
      "popularity": 149.999,
      "vote_count": 685,
      "video": false,
      "poster_path": "/h4VB6m0RwcicVEZvzftYZyKXs6K.jpg",
      "id": 495764,
      "adult": false,
      "backdrop_path": "/uozb2VeD87YmhoUP1RrGWfzuCrr.jpg",
      "original_language": "en",
      "original_title": "Birds of Prey (and the Fantabulous Emancipation of One Harley Quinn)",
      "genre_ids": [
        28,
        35,
        80
      ],
      "title": "Birds of Prey (and the Fantabulous Emancipation of One Harley Quinn)",
      "vote_average": 6.9,
      "overview": "After her breakup with the Joker, Harley Quinn joins forces with singer Black Canary, assassin Huntress, and police detective Renee Montoya to help a young girl named Cassandra, who had a hit placed on her after she stole a rare diamond from crime lord Roman Sionis.",
      "release_date": "2020-02-05"
    },
    {
      "popularity": 121.807,
      "vote_count": 2138,
      "video": false,
      "poster_path": "/pThyQovXQrw2m0s9x82twj48Jq4.jpg",
      "id": 546554,
      "adult": false,
      "backdrop_path": "/cjTQSwcsfVdirSFSHNBXRGkxmWa.jpg",
      "original_language": "en",
      "original_title": "Knives Out",
      "genre_ids": [
        35,
        80,
        18,
        9648,
        53
      ],
      "title": "Knives Out",
      "vote_average": 7.8,
      "overview": "When renowned crime novelist Harlan Thrombey is found dead at his estate just after his 85th birthday, the inquisitive and debonair Detective Benoit Blanc is mysteriously enlisted to investigate. From Harlan's dysfunctional family to his devoted staff, Blanc sifts through a web of red herrings and self-serving lies to uncover the truth behind Harlan's untimely death.",
      "release_date": "2019-11-27"
    },
    {
      "popularity": 104.953,
      "vote_count": 9177,
      "video": false,
      "poster_path": "/udDclJoHjfjb8Ekgsd4FDteOkCU.jpg",
      "id": 475557,
      "adult": false,
      "backdrop_path": "/n6bUvigpRFqSwmPp1m2YADdbRBc.jpg",
      "original_language": "en",
      "original_title": "Joker",
      "genre_ids": [
        80,
        18,
        53
      ],
      "title": "Joker",
      "vote_average": 8.2,
      "overview": "During the 1980s, a failed stand-up comedian is driven insane and turns to a life of crime and chaos in Gotham City while becoming an infamous psychopathic crime figure.",
      "release_date": "2019-10-02"
    },
    {
      "popularity": 110.378,
      "id": 512200,
      "video": false,
      "vote_count": 1547,
      "vote_average": 6.7,
      "title": "Jumanji: The Next Level",
      "release_date": "2019-12-04",
      "original_language": "en",
      "original_title": "Jumanji: The Next Level",
      "genre_ids": [
        28,
        12,
        35,
        14
      ],
      "backdrop_path": "/zTxHf9iIOCqRbxvl8W5QYKrsMLq.jpg",
      "adult": false,
      "overview": "As the gang return to Jumanji to rescue one of their own, they discover that nothing is as they expect. The players will have to brave parts unknown and unexplored in order to escape the world’s most dangerous game.",
      "poster_path": "/jyw8VKYEiM1UDzPB7NsisUgBeJ8.jpg"
    },
    {
      "popularity": 108.601,
      "vote_count": 410,
      "video": false,
      "poster_path": "/5eNiYMu2GXCtNlDwMcJqKGVwyoX.jpg",
      "id": 448119,
      "adult": false,
      "backdrop_path": "/lG802rseTZcN9mtLsQPVfApEVzM.jpg",
      "original_language": "en",
      "original_title": "Dolittle",
      "genre_ids": [
        12,
        35,
        14,
        10751
      ],
      "title": "Dolittle",
      "vote_average": 6.4,
      "overview": "After losing his wife seven years earlier, the eccentric Dr. John Dolittle, famed doctor and veterinarian of Queen Victoria’s England, hermits himself away behind the high walls of Dolittle Manor with only his menagerie of exotic animals for company. But when the young queen falls gravely ill, a reluctant Dolittle is forced to set sail on an epic adventure to a mythical island in search of a cure, regaining his wit and courage as he crosses old adversaries and discovers wondrous creatures.",
      "release_date": "2020-01-01"
    },
    {
      "popularity": 95.742,
      "vote_count": 1903,
      "video": false,
      "poster_path": "/7GsM4mtM0worCtIVeiQt28HieeN.jpg",
      "id": 515001,
      "adult": false,
      "backdrop_path": "/agoBZfL1q5G79SD0npArSlJn8BH.jpg",
      "original_language": "en",
      "original_title": "Jojo Rabbit",
      "genre_ids": [
        35,
        18,
        10752
      ],
      "title": "Jojo Rabbit",
      "vote_average": 8.1,
      "overview": "A World War II satire that follows a lonely German boy whose world view is turned upside down when he discovers his single mother is hiding a young Jewish girl in their attic. Aided only by his idiotic imaginary friend, Adolf Hitler, Jojo must confront his blind nationalism.",
      "release_date": "2019-10-18"
    },
    {
      "popularity": 104.881,
      "vote_count": 2662,
      "video": false,
      "poster_path": "/iZf0KyrE25z1sage4SYFLCCrMi9.jpg",
      "id": 530915,
      "adult": false,
      "backdrop_path": "/2WgieNR1tGHlpJUsolbVzbUbE1O.jpg",
      "original_language": "en",
      "original_title": "1917",
      "genre_ids": [
        28,
        18,
        10752
      ],
      "title": "1917",
      "vote_average": 8.1,
      "overview": "At the height of the First World War, two young British soldiers must cross enemy territory and deliver a message that will stop a deadly attack on hundreds of soldiers.",
      "release_date": "2019-12-10"
    },
    {
      "popularity": 88.892,
      "vote_count": 1463,
      "video": false,
      "poster_path": "/vqzNJRH4YyquRiWxCCOH0aXggHI.jpg",
      "id": 290859,
      "adult": false,
      "backdrop_path": "/riTANvQ8GKmQbgtC1ps3OfkU43A.jpg",
      "original_language": "en",
      "original_title": "Terminator: Dark Fate",
      "genre_ids": [
        28,
        878
      ],
      "title": "Terminator: Dark Fate",
      "vote_average": 6.2,
      "overview": "Decades after Sarah Connor prevented Judgment Day, a lethal new Terminator is sent to eliminate the future leader of the resistance. In a fight to save mankind, battle-hardened Sarah Connor teams up with an unexpected ally and an enhanced super soldier to stop the deadliest Terminator yet.",
      "release_date": "2019-10-23"
    },
    {
      "popularity": 87.226,
      "vote_count": 1563,
      "video": false,
      "poster_path": "/6ApDtO7xaWAfPqfi2IARXIzj8QS.jpg",
      "id": 359724,
      "adult": false,
      "backdrop_path": "/n3UanIvmnBlH531pykuzNs4LbH6.jpg",
      "original_language": "en",
      "original_title": "Ford v Ferrari",
      "genre_ids": [
        28,
        18
      ],
      "title": "Ford v Ferrari",
      "vote_average": 7.8,
      "overview": "American car designer Carroll Shelby and the British-born driver Ken Miles work together to battle corporate interference, the laws of physics, and their own personal demons to build a revolutionary race car for Ford Motor Company and take on the dominating race cars of Enzo Ferrari at the 24 Hours of Le Mans in France in 1966.",
      "release_date": "2019-11-13"
    },
    {
      "popularity": 80.946,
      "vote_count": 539,
      "video": false,
      "poster_path": "/789DIwuuf7hACsXEFTTSR9H46ka.jpg",
      "id": 565426,
      "adult": false,
      "backdrop_path": "/9LsJP9OuIBmBUxZpmVKtUUjF0PA.jpg",
      "original_language": "en",
      "original_title": "To All the Boys: P.S. I Still Love You",
      "genre_ids": [
        35,
        10749
      ],
      "title": "To All the Boys: P.S. I Still Love You",
      "vote_average": 7,
      "overview": "Lara Jean and Peter have just taken their romance from pretend to officially real when another recipient of one of her love letters enters the picture.",
      "release_date": "2020-02-12"
    },
    {
      "popularity": 68.537,
      "vote_count": 5424,
      "video": false,
      "poster_path": "/hKHZhUbIyUAjcSrqJThFGYIR6kI.jpg",
      "id": 466282,
      "adult": false,
      "backdrop_path": "/uZTtVdOEIwPA6vwVRI3217DoPM.jpg",
      "original_language": "en",
      "original_title": "To All the Boys I've Loved Before",
      "genre_ids": [
        35,
        10749
      ],
      "title": "To All the Boys I've Loved Before",
      "vote_average": 7.8,
      "overview": "Lara Jean's love life goes from imaginary to out of control when her secret letters to every boy she's ever fallen for are mysteriously mailed out.",
      "release_date": "2018-08-16"
    },
    {
      "popularity": 77.504,
      "id": 458897,
      "video": false,
      "vote_count": 420,
      "vote_average": 6.4,
      "title": "Charlie's Angels",
      "release_date": "2019-11-14",
      "original_language": "en",
      "original_title": "Charlie's Angels",
      "genre_ids": [
        28,
        12,
        35
      ],
      "backdrop_path": "/a0xTB1vBxMGt6LGG4N7k1wO9lfL.jpg",
      "adult": false,
      "overview": "When a systems engineer blows the whistle on a dangerous technology, Charlie's Angels from across the globe are called into action, putting their lives on the line to protect society.",
      "poster_path": "/1DPUFG6QnGqzpvEaDEv7TaepycM.jpg"
    },
    {
      "popularity": 67.773,
      "vote_count": 829,
      "video": false,
      "poster_path": "/y95lQLnuNKdPAzw9F9Ab8kJ80c3.jpg",
      "id": 38700,
      "adult": false,
      "backdrop_path": "/upUy2QhMZEmtypPW3PdieKLAHxh.jpg",
      "original_language": "en",
      "original_title": "Bad Boys for Life",
      "genre_ids": [
        28,
        80,
        53
      ],
      "title": "Bad Boys for Life",
      "vote_average": 6.4,
      "overview": "Marcus and Mike are forced to confront new threats, career changes, and midlife crises as they join the newly created elite team AMMO of the Miami police department to take down the ruthless Armando Armas, the vicious leader of a Miami drug cartel.",
      "release_date": "2020-01-15"
    },
    {
      "popularity": 68.809,
      "vote_count": 16787,
      "video": false,
      "poster_path": "/7WsyChQLEftFiDOVTGkv3hFpyyt.jpg",
      "id": 299536,
      "adult": false,
      "backdrop_path": "/bOGkgRGdhrBYJSLpXaxhXVstddV.jpg",
      "original_language": "en",
      "original_title": "Avengers: Infinity War",
      "genre_ids": [
        28,
        12,
        878
      ],
      "title": "Avengers: Infinity War",
      "vote_average": 8.3,
      "overview": "As the Avengers and their allies have continued to protect the world from threats too large for any one hero to handle, a new danger has emerged from the cosmic shadows: Thanos. A despot of intergalactic infamy, his goal is to collect all six Infinity Stones, artifacts of unimaginable power, and use them to inflict his twisted will on all of reality. Everything the Avengers have fought for has led up to this moment - the fate of Earth and existence itself has never been more uncertain.",
      "release_date": "2018-04-25"
    },
    {
      "popularity": 81.741,
      "vote_count": 8710,
      "video": false,
      "poster_path": "/jpfkzbIXgKZqCZAkEkFH2VYF63s.jpg",
      "id": 920,
      "adult": false,
      "backdrop_path": "/a1MlbLBk5Sy6YvMbSuKfwGlDVlb.jpg",
      "original_language": "en",
      "original_title": "Cars",
      "genre_ids": [
        12,
        16,
        35,
        10751
      ],
      "title": "Cars",
      "vote_average": 6.7,
      "overview": "Lightning McQueen, a hotshot rookie race car driven to succeed, discovers that life is about the journey, not the finish line, when he finds himself unexpectedly detoured in the sleepy Route 66 town of Radiator Springs. On route across the country to the big Piston Cup Championship in California to compete against two seasoned pros, McQueen gets to know the town's offbeat characters.",
      "release_date": "2006-06-08"
    }
  ]
}
